%YAML 1.1
%TAG !u! tag:unity3d.com,2011:
--- !u!1001 &8545655221895862028
PrefabInstance:
  m_ObjectHideFlags: 0
  serializedVersion: 2
  m_Modification:
    m_TransformParent: {fileID: 0}
    m_Modifications:
    - target: {fileID: 2716075610355221403, guid: d6daf9580d88a0a43a4623a7581de2d8,
        type: 3}
      propertyPath: m_Name
      value: animatedAnswer
      objectReference: {fileID: 0}
    - target: {fileID: 4485868139234453874, guid: d6daf9580d88a0a43a4623a7581de2d8,
        type: 3}
      propertyPath: m_fontColor32.rgba
      value: 4280563295
      objectReference: {fileID: 0}
    - target: {fileID: 4485868139234453874, guid: d6daf9580d88a0a43a4623a7581de2d8,
        type: 3}
      propertyPath: m_fontColor.r
      value: 0.37254903
      objectReference: {fileID: 0}
    - target: {fileID: 4485868139234453874, guid: d6daf9580d88a0a43a4623a7581de2d8,
        type: 3}
      propertyPath: m_fontColor.g
      value: 0.21176471
      objectReference: {fileID: 0}
    - target: {fileID: 4485868139234453874, guid: d6daf9580d88a0a43a4623a7581de2d8,
        type: 3}
      propertyPath: m_fontColor.b
      value: 0.14117648
      objectReference: {fileID: 0}
    - target: {fileID: 4485868139234453874, guid: d6daf9580d88a0a43a4623a7581de2d8,
        type: 3}
      propertyPath: originalText
      value: "\u0627\u0633\u064A\u0627"
      objectReference: {fileID: 0}
    - target: {fileID: 4485868139234453874, guid: d6daf9580d88a0a43a4623a7581de2d8,
        type: 3}
      propertyPath: m_text
      value: "\u0627\uFEB3\uFEF4\uFE8E"
      objectReference: {fileID: 0}
    - target: {fileID: 4485868139234453874, guid: d6daf9580d88a0a43a4623a7581de2d8,
        type: 3}
      propertyPath: m_fontSize
      value: 45
      objectReference: {fileID: 0}
    - target: {fileID: 4485868139234453874, guid: d6daf9580d88a0a43a4623a7581de2d8,
        type: 3}
      propertyPath: m_fontSizeBase
      value: 45
      objectReference: {fileID: 0}
    - target: {fileID: 4485868139234453874, guid: d6daf9580d88a0a43a4623a7581de2d8,
        type: 3}
      propertyPath: m_overflowMode
      value: 1
      objectReference: {fileID: 0}
    - target: {fileID: 4485868139234453874, guid: d6daf9580d88a0a43a4623a7581de2d8,
        type: 3}
      propertyPath: farsi
      value: 0
      objectReference: {fileID: 0}
    - target: {fileID: 5022353913300910991, guid: d6daf9580d88a0a43a4623a7581de2d8,
        type: 3}
      propertyPath: m_LocalPosition.x
      value: 0
      objectReference: {fileID: 0}
    - target: {fileID: 5022353913300910991, guid: d6daf9580d88a0a43a4623a7581de2d8,
        type: 3}
      propertyPath: m_LocalPosition.y
      value: 0
      objectReference: {fileID: 0}
    - target: {fileID: 5022353913300910991, guid: d6daf9580d88a0a43a4623a7581de2d8,
        type: 3}
      propertyPath: m_LocalPosition.z
      value: 0
      objectReference: {fileID: 0}
    - target: {fileID: 5022353913300910991, guid: d6daf9580d88a0a43a4623a7581de2d8,
        type: 3}
      propertyPath: m_LocalRotation.x
      value: -0
      objectReference: {fileID: 0}
    - target: {fileID: 5022353913300910991, guid: d6daf9580d88a0a43a4623a7581de2d8,
        type: 3}
      propertyPath: m_LocalRotation.y
      value: -0
      objectReference: {fileID: 0}
    - target: {fileID: 5022353913300910991, guid: d6daf9580d88a0a43a4623a7581de2d8,
        type: 3}
      propertyPath: m_LocalRotation.z
      value: -0
      objectReference: {fileID: 0}
    - target: {fileID: 5022353913300910991, guid: d6daf9580d88a0a43a4623a7581de2d8,
        type: 3}
      propertyPath: m_LocalRotation.w
      value: 1
      objectReference: {fileID: 0}
    - target: {fileID: 5022353913300910991, guid: d6daf9580d88a0a43a4623a7581de2d8,
        type: 3}
      propertyPath: m_RootOrder
      value: 0
      objectReference: {fileID: 0}
    - target: {fileID: 5022353913300910991, guid: d6daf9580d88a0a43a4623a7581de2d8,
        type: 3}
      propertyPath: m_LocalEulerAnglesHint.x
      value: 0
      objectReference: {fileID: 0}
    - target: {fileID: 5022353913300910991, guid: d6daf9580d88a0a43a4623a7581de2d8,
        type: 3}
      propertyPath: m_LocalEulerAnglesHint.y
      value: 0
      objectReference: {fileID: 0}
    - target: {fileID: 5022353913300910991, guid: d6daf9580d88a0a43a4623a7581de2d8,
        type: 3}
      propertyPath: m_LocalEulerAnglesHint.z
      value: 0
      objectReference: {fileID: 0}
    - target: {fileID: 5022353913300910991, guid: d6daf9580d88a0a43a4623a7581de2d8,
        type: 3}
      propertyPath: m_AnchoredPosition.x
      value: 4
      objectReference: {fileID: 0}
    - target: {fileID: 5022353913300910991, guid: d6daf9580d88a0a43a4623a7581de2d8,
        type: 3}
      propertyPath: m_AnchoredPosition.y
      value: -15.1
      objectReference: {fileID: 0}
    - target: {fileID: 5022353913300910991, guid: d6daf9580d88a0a43a4623a7581de2d8,
        type: 3}
      propertyPath: m_SizeDelta.x
      value: -52.313843
      objectReference: {fileID: 0}
    - target: {fileID: 5022353913300910991, guid: d6daf9580d88a0a43a4623a7581de2d8,
        type: 3}
      propertyPath: m_SizeDelta.y
      value: -99.87781
      objectReference: {fileID: 0}
    - target: {fileID: 5022353913300910991, guid: d6daf9580d88a0a43a4623a7581de2d8,
        type: 3}
      propertyPath: m_AnchorMin.x
      value: 0
      objectReference: {fileID: 0}
    - target: {fileID: 5022353913300910991, guid: d6daf9580d88a0a43a4623a7581de2d8,
        type: 3}
      propertyPath: m_AnchorMin.y
      value: 0
      objectReference: {fileID: 0}
    - target: {fileID: 5022353913300910991, guid: d6daf9580d88a0a43a4623a7581de2d8,
        type: 3}
      propertyPath: m_AnchorMax.x
      value: 1
      objectReference: {fileID: 0}
    - target: {fileID: 5022353913300910991, guid: d6daf9580d88a0a43a4623a7581de2d8,
        type: 3}
      propertyPath: m_AnchorMax.y
      value: 1
      objectReference: {fileID: 0}
    - target: {fileID: 5022353913300910991, guid: d6daf9580d88a0a43a4623a7581de2d8,
        type: 3}
      propertyPath: m_Pivot.x
      value: 0.5
      objectReference: {fileID: 0}
    - target: {fileID: 5022353913300910991, guid: d6daf9580d88a0a43a4623a7581de2d8,
        type: 3}
      propertyPath: m_Pivot.y
      value: 0.5
      objectReference: {fileID: 0}
    m_RemovedComponents: []
  m_SourcePrefab: {fileID: 100100000, guid: d6daf9580d88a0a43a4623a7581de2d8, type: 3}
